Utilities for Fundamental Geo-Spatial Data • fgdr
…
数値標高モデル

標高のメッシュデータである数値標高モデル(DEM) のデータはデータフレームまたはrasterとして読み込みます。対象のファイルが保存されているパスおよび数値標高データの種類を指定したread_fgd_dem()実行します。

5mメッシュ

read_fgd_dem("FG-GML-5135-63-00-DEM5A-20161001.xml", 
             resolution = 5)

#> # A tibble: 33,750 x 2
#>    type       value
#>    <chr>      <dbl>
#>  1 データなし    NA
#>  2 データなし    NA
#>  3 データなし    NA
#>  4 データなし    NA
#>  5 データなし    NA
#>  6 データなし    NA
#>  7 データなし    NA
#>  8 データなし    NA
#>  9 データなし    NA
#> 10 データなし    NA
#> # … with 33,740 more rows
…
