…
## 数値標高モデル

標高のメッシュデータである数値標高モデル(DEM)
のデータはデータフレームまたはrasterとして読み込みます。対象のファイルが保存されているパスおよび数値標高データの種類を指定した`read_fgd_dem()`実行します。

### 5mメッシュ

``` r
read_fgd_dem("FG-GML-5135-63-00-DEM5A-20161001.xml", 
             resolution = 5)
```

    #> # A tibble: 33,750 x 2
    #>    type       value
    #>    <chr>      <dbl>
    #>  1 データなし -9999
    #>  2 データなし -9999
    #>  3 データなし -9999
    #>  4 データなし -9999
    #>  5 データなし -9999
    #>  6 データなし -9999
    #>  7 データなし -9999
    #>  8 データなし -9999
    #>  9 データなし -9999
    #> 10 データなし -9999
    #> # ... with 33,740 more rows
…
