Read and Parse Fundamental Geospatial Data (FGD) dem file — read_fgd_dem • fgdr
…
#>     2:     地表面 -9999 [m]
#>     3:     海水面 -9999 [m]
#>     4:     地表面 -9999 [m]
#>     5: データなし    NA [m]
#>    ---                     
#> 33746: データなし    NA [m]
#> 33747: データなし    NA [m]
#> 33748: データなし    NA [m]
#> 33749: データなし    NA [m]
#> 33750: データなし    NA [m]
read_fgd_dem(fgd_5dem,
             resolution = 5,
             return_class = "data.frame")

#> # A tibble: 33,750 x 2
#>    type       value
#>    <chr>        [m]
#>  1 その他     -9999
#>  2 地表面     -9999
#>  3 海水面     -9999
#>  4 地表面     -9999
#>  5 データなし    NA
#>  6 その他     -9999
#>  7 内水面     -9999
#>  8 データなし    NA
#>  9 内水面     -9999
#> 10 その他     -9999
#> # … with 33,740 more rows
…
